[
  [
    {
      "name": "Believe",
      "artist": "Disturbed",
      "url": "https://www.last.fm/music/Disturbed/Believe",
      "image": [
        {
          "#text": "https://lastfm-img2.akamaized.net/i/u/34s/bca3b80481394e25b03f4fc77c338897.png",
          "size": "small"
        },
        {
          "#text": "https://lastfm-img2.akamaized.net/i/u/64s/bca3b80481394e25b03f4fc77c338897.png",
          "size": "medium"
        },
        {
          "#text": "https://lastfm-img2.akamaized.net/i/u/174s/bca3b80481394e25b03f4fc77c338897.png",
          "size": "large"
        },
        {
          "#text": "https://lastfm-img2.akamaized.net/i/u/300x300/bca3b80481394e25b03f4fc77c338897.png",
          "size": "extralarge"
        }
      ],
      "streamable": "0",
      "mbid": "c559efc2-f734-41ae-93bd-2d78414e0356"
    },
    {
      "name": "Make Believe",
      "artist": "Weezer",
      "url": "https://www.last.fm/music/Weezer/Make+Believe",
      "image": [
        {
          "#text": "https://lastfm-img2.akamaized.net/i/u/34s/1c8439b16ed4ca4e0bac727e7b325581.png",
          "size": "small"
        },
        {
          "#text": "https://lastfm-img2.akamaized.net/i/u/64s/1c8439b16ed4ca4e0bac727e7b325581.png",
          "size": "medium"
        },
        {
          "#text": "https://lastfm-img2.akamaized.net/i/u/174s/1c8439b16ed4ca4e0bac727e7b325581.png",
          "size": "large"
        },
        {
          "#text": "https://lastfm-img2.akamaized.net/i/u/300x300/1c8439b16ed4ca4e0bac727e7b325581.png",
          "size": "extralarge"
        }
      ],
      "streamable": "0",
      "mbid": "9e7103bb-fc9a-4e5a-a90c-2a3ab4c08e19"
    },
    {
      "name": "Believe",
      "artist": "Justin Bieber",
      "url": "https://www.last.fm/music/Justin+Bieber/Believe",
      "image": [
        {
          "#text": "https://lastfm-img2.akamaized.net/i/u/34s/899fe1643173a9568ac6e832327e7b57.png",
          "size": "small"
        },
        {
          "#text": "https://lastfm-img2.akamaized.net/i/u/64s/899fe1643173a9568ac6e832327e7b57.png",
          "size": "medium"
        },
        {
          "#text": "https://lastfm-img2.akamaized.net/i/u/174s/899fe1643173a9568ac6e832327e7b57.png",
          "size": "large"
        },
        {
          "#text": "https://lastfm-img2.akamaized.net/i/u/300x300/899fe1643173a9568ac6e832327e7b57.png",
          "size": "extralarge"
        }
      ],
      "streamable": "0",
      "mbid": "5d88ae0c-c4bf-4e64-bc97-45789880d910"
    },
    {
      "name": "Don't Believe the Truth",
      "artist": "Oasis",
      "url": "https://www.last.fm/music/Oasis/Don%27t+Believe+the+Truth",
      "image": [
        {
          "#text": "https://lastfm-img2.akamaized.net/i/u/34s/df7a337e5a38415db87b5a9f8020806c.png",
          "size": "small"
        },
        {
          "#text": "https://lastfm-img2.akamaized.net/i/u/64s/df7a337e5a38415db87b5a9f8020806c.png",
          "size": "medium"
        },
        {
          "#text": "https://lastfm-img2.akamaized.net/i/u/174s/df7a337e5a38415db87b5a9f8020806c.png",
          "size": "large"
        },
        {
          "#text": "https://lastfm-img2.akamaized.net/i/u/300x300/df7a337e5a38415db87b5a9f8020806c.png",
          "size": "extralarge"
        }
      ],
      "streamable": "0",
      "mbid": "af2763e9-ebb9-319b-93e0-02f7449e8a67"
    },
    {
      "name": "Believers Never Die - Greatest Hits",
      "artist": "Fall Out Boy",
      "url": "https://www.last.fm/music/Fall+Out+Boy/Believers+Never+Die+-+Greatest+Hits",
      "image": [
        {
          "#text": "https://lastfm-img2.akamaized.net/i/u/34s/190429befa66419db3510a86774006cb.png",
          "size": "small"
        },
        {
          "#text": "https://lastfm-img2.akamaized.net/i/u/64s/190429befa66419db3510a86774006cb.png",
          "size": "medium"
        },
        {
          "#text": "https://lastfm-img2.akamaized.net/i/u/174s/190429befa66419db3510a86774006cb.png",
          "size": "large"
        },
        {
          "#text": "https://lastfm-img2.akamaized.net/i/u/300x300/190429befa66419db3510a86774006cb.png",
          "size": "extralarge"
        }
      ],
      "streamable": "0",
      "mbid": "fa345686-b9cf-47d4-9862-e37e9199c4e5"
    }
  ],
  [
    {
      "name": "Death Magnetic",
      "artist": "Metallica",
      "url": "https://www.last.fm/music/Metallica/Death+Magnetic",
      "image": [
        {
          "#text": "https://lastfm-img2.akamaized.net/i/u/34s/bb80178de028c2e7b1897ff87cbdd58e.png",
          "size": "small"
        },
        {
          "#text": "https://lastfm-img2.akamaized.net/i/u/64s/bb80178de028c2e7b1897ff87cbdd58e.png",
          "size": "medium"
        },
        {
          "#text": "https://lastfm-img2.akamaized.net/i/u/174s/bb80178de028c2e7b1897ff87cbdd58e.png",
          "size": "large"
        },
        {
          "#text": "https://lastfm-img2.akamaized.net/i/u/300x300/bb80178de028c2e7b1897ff87cbdd58e.png",
          "size": "extralarge"
        }
      ],
      "streamable": "0",
      "mbid": "a826c9d4-f35e-436d-b218-818fc9beb841"
    },
    {
      "name": "Death of a Bachelor",
      "artist": "Panic! at the Disco",
      "url": "https://www.last.fm/music/Panic%21+at+the+Disco/Death+of+a+Bachelor",
      "image": [
        {
          "#text": "https://lastfm-img2.akamaized.net/i/u/34s/257fe11067041f5b10e758f64afb601e.png",
          "size": "small"
        },
        {
          "#text": "https://lastfm-img2.akamaized.net/i/u/64s/257fe11067041f5b10e758f64afb601e.png",
          "size": "medium"
        },
        {
          "#text": "https://lastfm-img2.akamaized.net/i/u/174s/257fe11067041f5b10e758f64afb601e.png",
          "size": "large"
        },
        {
          "#text": "https://lastfm-img2.akamaized.net/i/u/300x300/257fe11067041f5b10e758f64afb601e.png",
          "size": "extralarge"
        }
      ],
      "streamable": "0",
      "mbid": ""
    },
    {
      "name": "Viva la Vida or Death and All His Friends",
      "artist": "Coldplay",
      "url": "https://www.last.fm/music/Coldplay/Viva+la+Vida+or+Death+and+All+His+Friends",
      "image": [
        {
          "#text": "https://lastfm-img2.akamaized.net/i/u/34s/c8933ae124dd49eb928ed9cf45d9fd5b.png",
          "size": "small"
        },
        {
          "#text": "https://lastfm-img2.akamaized.net/i/u/64s/c8933ae124dd49eb928ed9cf45d9fd5b.png",
          "size": "medium"
        },
        {
          "#text": "https://lastfm-img2.akamaized.net/i/u/174s/c8933ae124dd49eb928ed9cf45d9fd5b.png",
          "size": "large"
        },
        {
          "#text": "https://lastfm-img2.akamaized.net/i/u/300x300/c8933ae124dd49eb928ed9cf45d9fd5b.png",
          "size": "extralarge"
        }
      ],
      "streamable": "0",
      "mbid": "c9bd301c-66b6-3364-87f6-6e68e0069818"
    },
    {
      "name": "Death By Sexy",
      "artist": "Eagles of Death Metal",
      "url": "https://www.last.fm/music/Eagles+of+Death+Metal/Death+By+Sexy",
      "image": [
        {
          "#text": "https://lastfm-img2.akamaized.net/i/u/34s/70dc8f13c3424e44ba78a656441476c2.png",
          "size": "small"
        },
        {
          "#text": "https://lastfm-img2.akamaized.net/i/u/64s/70dc8f13c3424e44ba78a656441476c2.png",
          "size": "medium"
        },
        {
          "#text": "https://lastfm-img2.akamaized.net/i/u/174s/70dc8f13c3424e44ba78a656441476c2.png",
          "size": "large"
        },
        {
          "#text": "https://lastfm-img2.akamaized.net/i/u/300x300/70dc8f13c3424e44ba78a656441476c2.png",
          "size": "extralarge"
        }
      ],
      "streamable": "0",
      "mbid": "a110a6da-920f-41e9-9236-ac121f22f09f"
    },
    {
      "name": "Deathconsciousness",
      "artist": "Have a Nice Life",
      "url": "https://www.last.fm/music/Have+a+Nice+Life/Deathconsciousness",
      "image": [
        {
          "#text": "https://lastfm-img2.akamaized.net/i/u/34s/841092753c0d4f10cf9348beb4c7a1d9.png",
          "size": "small"
        },
        {
          "#text": "https://lastfm-img2.akamaized.net/i/u/64s/841092753c0d4f10cf9348beb4c7a1d9.png",
          "size": "medium"
        },
        {
          "#text": "https://lastfm-img2.akamaized.net/i/u/174s/841092753c0d4f10cf9348beb4c7a1d9.png",
          "size": "large"
        },
        {
          "#text": "https://lastfm-img2.akamaized.net/i/u/300x300/841092753c0d4f10cf9348beb4c7a1d9.png",
          "size": "extralarge"
        }
      ],
      "streamable": "0",
      "mbid": "1b354727-7edb-4216-b416-67a4a9030fb4"
    }
  ],
  [
    {
      "name": "2014 Forest Hills Drive",
      "artist": "J. Cole",
      "url": "https://www.last.fm/music/J.+Cole/2014+Forest+Hills+Drive",
      "image": [
        {
          "#text": "https://lastfm-img2.akamaized.net/i/u/34s/18f9e157c5cb43d3c31b7f9b4f038995.png",
          "size": "small"
        },
        {
          "#text": "https://lastfm-img2.akamaized.net/i/u/64s/18f9e157c5cb43d3c31b7f9b4f038995.png",
          "size": "medium"
        },
        {
          "#text": "https://lastfm-img2.akamaized.net/i/u/174s/18f9e157c5cb43d3c31b7f9b4f038995.png",
          "size": "large"
        },
        {
          "#text": "https://lastfm-img2.akamaized.net/i/u/300x300/18f9e157c5cb43d3c31b7f9b4f038995.png",
          "size": "extralarge"
        }
      ],
      "streamable": "0",
      "mbid": "bbd931f0-f3ad-4550-b1cd-862e4b70cc03"
    },
    {
      "name": "Red Forest",
      "artist": "If These Trees Could Talk",
      "url": "https://www.last.fm/music/If+These+Trees+Could+Talk/Red+Forest",
      "image": [
        {
          "#text": "https://lastfm-img2.akamaized.net/i/u/34s/103f8340785e4f258d086256a90aacbe.png",
          "size": "small"
        },
        {
          "#text": "https://lastfm-img2.akamaized.net/i/u/64s/103f8340785e4f258d086256a90aacbe.png",
          "size": "medium"
        },
        {
          "#text": "https://lastfm-img2.akamaized.net/i/u/174s/103f8340785e4f258d086256a90aacbe.png",
          "size": "large"
        },
        {
          "#text": "https://lastfm-img2.akamaized.net/i/u/300x300/103f8340785e4f258d086256a90aacbe.png",
          "size": "extralarge"
        }
      ],
      "streamable": "0",
      "mbid": "6e2f5fb4-5c55-45c3-8e16-572c46a9ddcc"
    },
    {
      "name": "Spirit of the Forest",
      "artist": "Korpiklaani",
      "url": "https://www.last.fm/music/Korpiklaani/Spirit+of+the+Forest",
      "image": [
        {
          "#text": "https://lastfm-img2.akamaized.net/i/u/34s/f91f1cc4ad924b0ab0a71530c8dfbd17.png",
          "size": "small"
        },
        {
          "#text": "https://lastfm-img2.akamaized.net/i/u/64s/f91f1cc4ad924b0ab0a71530c8dfbd17.png",
          "size": "medium"
        },
        {
          "#text": "https://lastfm-img2.akamaized.net/i/u/174s/f91f1cc4ad924b0ab0a71530c8dfbd17.png",
          "size": "large"
        },
        {
          "#text": "https://lastfm-img2.akamaized.net/i/u/300x300/f91f1cc4ad924b0ab0a71530c8dfbd17.png",
          "size": "extralarge"
        }
      ],
      "streamable": "0",
      "mbid": "ab6cf38c-90a4-4828-990c-21d4560a7057"
    },
    {
      "name": "Deep Forest",
      "artist": "Deep Forest",
      "url": "https://www.last.fm/music/Deep+Forest/Deep+Forest",
      "image": [
        {
          "#text": "https://lastfm-img2.akamaized.net/i/u/34s/36f72bdec47d4dcd9460aac1e0a61e8c.png",
          "size": "small"
        },
        {
          "#text": "https://lastfm-img2.akamaized.net/i/u/64s/36f72bdec47d4dcd9460aac1e0a61e8c.png",
          "size": "medium"
        },
        {
          "#text": "https://lastfm-img2.akamaized.net/i/u/174s/36f72bdec47d4dcd9460aac1e0a61e8c.png",
          "size": "large"
        },
        {
          "#text": "https://lastfm-img2.akamaized.net/i/u/300x300/36f72bdec47d4dcd9460aac1e0a61e8c.png",
          "size": "extralarge"
        }
      ],
      "streamable": "0",
      "mbid": "d8834ebd-c636-4ae5-98d4-da6840256df1"
    },
    {
      "name": "Emerald Forest and the Blackbird",
      "artist": "Swallow the Sun",
      "url": "https://www.last.fm/music/Swallow+the+Sun/Emerald+Forest+and+the+Blackbird",
      "image": [
        {
          "#text": "https://lastfm-img2.akamaized.net/i/u/34s/55bbfe52ac2b466bbb4e774890d1cbdf.png",
          "size": "small"
        },
        {
          "#text": "https://lastfm-img2.akamaized.net/i/u/64s/55bbfe52ac2b466bbb4e774890d1cbdf.png",
          "size": "medium"
        },
        {
          "#text": "https://lastfm-img2.akamaized.net/i/u/174s/55bbfe52ac2b466bbb4e774890d1cbdf.png",
          "size": "large"
        },
        {
          "#text": "https://lastfm-img2.akamaized.net/i/u/300x300/55bbfe52ac2b466bbb4e774890d1cbdf.png",
          "size": "extralarge"
        }
      ],
      "streamable": "0",
      "mbid": "d8143284-502e-46c7-ab21-8b5a07b31186"
    }
  ],[
  {
    "name": "Steal This Album!",
    "artist": "System of a Down",
    "url": "https://www.last.fm/music/System+of+a+Down/Steal+This+Album%21",
    "image": [
      {
        "#text": "https://lastfm-img2.akamaized.net/i/u/34s/719beff37975817f159399ba0c624a56.png",
        "size": "small"
      },
      {
        "#text": "https://lastfm-img2.akamaized.net/i/u/64s/719beff37975817f159399ba0c624a56.png",
        "size": "medium"
      },
      {
        "#text": "https://lastfm-img2.akamaized.net/i/u/174s/719beff37975817f159399ba0c624a56.png",
        "size": "large"
      },
      {
        "#text": "https://lastfm-img2.akamaized.net/i/u/300x300/719beff37975817f159399ba0c624a56.png",
        "size": "extralarge"
      }
    ],
    "streamable": "0",
    "mbid": "71a150d8-ffa4-3e07-aca8-ee35d02d571c"
  },
  {
    "name": "Speak for Yourself",
    "artist": "Imogen Heap",
    "url": "https://www.last.fm/music/Imogen+Heap/Speak+for+Yourself",
    "image": [
      {
        "#text": "https://lastfm-img2.akamaized.net/i/u/34s/daf14d6d0f414217a455bb7726130e35.png",
        "size": "small"
      },
      {
        "#text": "https://lastfm-img2.akamaized.net/i/u/64s/daf14d6d0f414217a455bb7726130e35.png",
        "size": "medium"
      },
      {
        "#text": "https://lastfm-img2.akamaized.net/i/u/174s/daf14d6d0f414217a455bb7726130e35.png",
        "size": "large"
      },
      {
        "#text": "https://lastfm-img2.akamaized.net/i/u/300x300/daf14d6d0f414217a455bb7726130e35.png",
        "size": "extralarge"
      }
    ],
    "streamable": "0",
    "mbid": "f29ea105-ff73-4d44-9ab6-9980b646e5a3"
  },
  {
    "name": "Speak Now",
    "artist": "Taylor Swift",
    "url": "https://www.last.fm/music/Taylor+Swift/Speak+Now",
    "image": [
      {
        "#text": "https://lastfm-img2.akamaized.net/i/u/34s/ead294d0d6a74ad1b1df311ded396cbf.png",
        "size": "small"
      },
      {
        "#text": "https://lastfm-img2.akamaized.net/i/u/64s/ead294d0d6a74ad1b1df311ded396cbf.png",
        "size": "medium"
      },
      {
        "#text": "https://lastfm-img2.akamaized.net/i/u/174s/ead294d0d6a74ad1b1df311ded396cbf.png",
        "size": "large"
      },
      {
        "#text": "https://lastfm-img2.akamaized.net/i/u/300x300/ead294d0d6a74ad1b1df311ded396cbf.png",
        "size": "extralarge"
      }
    ],
    "streamable": "0",
    "mbid": "829d9e28-e7a8-4f91-a21a-1eef17da356d"
  },
  {
    "name": "What Separates Me from You",
    "artist": "A Day to Remember",
    "url": "https://www.last.fm/music/A+Day+to+Remember/What+Separates+Me+from+You",
    "image": [
      {
        "#text": "https://lastfm-img2.akamaized.net/i/u/34s/d05d163494c34751b14ba19f06d29676.png",
        "size": "small"
      },
      {
        "#text": "https://lastfm-img2.akamaized.net/i/u/64s/d05d163494c34751b14ba19f06d29676.png",
        "size": "medium"
      },
      {
        "#text": "https://lastfm-img2.akamaized.net/i/u/174s/d05d163494c34751b14ba19f06d29676.png",
        "size": "large"
      },
      {
        "#text": "https://lastfm-img2.akamaized.net/i/u/300x300/d05d163494c34751b14ba19f06d29676.png",
        "size": "extralarge"
      }
    ],
    "streamable": "0",
    "mbid": "7a4634ab-9466-4348-a17f-8337d555fc45"
  },
  {
    "name": "Sea Change",
    "artist": "Beck",
    "url": "https://www.last.fm/music/Beck/Sea+Change",
    "image": [
      {
        "#text": "https://lastfm-img2.akamaized.net/i/u/34s/f82e16247f73436c97f3fd6e6691d382.png",
        "size": "small"
      },
      {
        "#text": "https://lastfm-img2.akamaized.net/i/u/64s/f82e16247f73436c97f3fd6e6691d382.png",
        "size": "medium"
      },
      {
        "#text": "https://lastfm-img2.akamaized.net/i/u/174s/f82e16247f73436c97f3fd6e6691d382.png",
        "size": "large"
      },
      {
        "#text": "https://lastfm-img2.akamaized.net/i/u/300x300/f82e16247f73436c97f3fd6e6691d382.png",
        "size": "extralarge"
      }
    ],
    "streamable": "0",
    "mbid": "09dc8894-bb52-4edd-a31b-e74e30753a44"
  }
],
  [
    {
      "name": "100th Window",
      "artist": "Massive Attack",
      "url": "https://www.last.fm/music/Massive+Attack/100th+Window",
      "image": [
        {
          "#text": "https://lastfm-img2.akamaized.net/i/u/34s/816856a917944411aadb9e3fc44939e4.png",
          "size": "small"
        },
        {
          "#text": "https://lastfm-img2.akamaized.net/i/u/64s/816856a917944411aadb9e3fc44939e4.png",
          "size": "medium"
        },
        {
          "#text": "https://lastfm-img2.akamaized.net/i/u/174s/816856a917944411aadb9e3fc44939e4.png",
          "size": "large"
        },
        {
          "#text": "https://lastfm-img2.akamaized.net/i/u/300x300/816856a917944411aadb9e3fc44939e4.png",
          "size": "extralarge"
        }
      ],
      "streamable": "0",
      "mbid": "715db53a-e261-3ea1-af6d-f502201a3549"
    },
    {
      "name": "Wind in the Wires",
      "artist": "Patrick Wolf",
      "url": "https://www.last.fm/music/Patrick+Wolf/Wind+in+the+Wires",
      "image": [
        {
          "#text": "https://lastfm-img2.akamaized.net/i/u/34s/5b2b872b550f06e3031d794d95668c4d.png",
          "size": "small"
        },
        {
          "#text": "https://lastfm-img2.akamaized.net/i/u/64s/5b2b872b550f06e3031d794d95668c4d.png",
          "size": "medium"
        },
        {
          "#text": "https://lastfm-img2.akamaized.net/i/u/174s/5b2b872b550f06e3031d794d95668c4d.png",
          "size": "large"
        },
        {
          "#text": "https://lastfm-img2.akamaized.net/i/u/300x300/5b2b872b550f06e3031d794d95668c4d.png",
          "size": "extralarge"
        }
      ],
      "streamable": "0",
      "mbid": "2deb0600-15e7-49e3-81dc-f88bf946fe89"
    },
    {
      "name": "Leaving Through the Window",
      "artist": "Something Corporate",
      "url": "https://www.last.fm/music/Something+Corporate/Leaving+Through+the+Window",
      "image": [
        {
          "#text": "https://lastfm-img2.akamaized.net/i/u/34s/69dc5c5f56874c988a5750c795a63c10.png",
          "size": "small"
        },
        {
          "#text": "https://lastfm-img2.akamaized.net/i/u/64s/69dc5c5f56874c988a5750c795a63c10.png",
          "size": "medium"
        },
        {
          "#text": "https://lastfm-img2.akamaized.net/i/u/174s/69dc5c5f56874c988a5750c795a63c10.png",
          "size": "large"
        },
        {
          "#text": "https://lastfm-img2.akamaized.net/i/u/300x300/69dc5c5f56874c988a5750c795a63c10.png",
          "size": "extralarge"
        }
      ],
      "streamable": "0",
      "mbid": "2dac1fd4-94ec-390a-985d-c7440c647a99"
    },
    {
      "name": "Windowlicker",
      "artist": "Aphex Twin",
      "url": "https://www.last.fm/music/Aphex+Twin/Windowlicker",
      "image": [
        {
          "#text": "https://lastfm-img2.akamaized.net/i/u/34s/fd536e7cf1f640c080b81e4e785637c6.png",
          "size": "small"
        },
        {
          "#text": "https://lastfm-img2.akamaized.net/i/u/64s/fd536e7cf1f640c080b81e4e785637c6.png",
          "size": "medium"
        },
        {
          "#text": "https://lastfm-img2.akamaized.net/i/u/174s/fd536e7cf1f640c080b81e4e785637c6.png",
          "size": "large"
        },
        {
          "#text": "https://lastfm-img2.akamaized.net/i/u/300x300/fd536e7cf1f640c080b81e4e785637c6.png",
          "size": "extralarge"
        }
      ],
      "streamable": "0",
      "mbid": "9644eaec-48e8-43e4-84ea-3cfc123cd82f"
    },
    {
      "name": "Winds Of Creation",
      "artist": "Decapitated",
      "url": "https://www.last.fm/music/Decapitated/Winds+Of+Creation",
      "image": [
        {
          "#text": "https://lastfm-img2.akamaized.net/i/u/34s/fdfd0cc024614c649706d0f118efcc9e.png",
          "size": "small"
        },
        {
          "#text": "https://lastfm-img2.akamaized.net/i/u/64s/fdfd0cc024614c649706d0f118efcc9e.png",
          "size": "medium"
        },
        {
          "#text": "https://lastfm-img2.akamaized.net/i/u/174s/fdfd0cc024614c649706d0f118efcc9e.png",
          "size": "large"
        },
        {
          "#text": "https://lastfm-img2.akamaized.net/i/u/300x300/fdfd0cc024614c649706d0f118efcc9e.png",
          "size": "extralarge"
        }
      ],
      "streamable": "0",
      "mbid": "394bd00a-df70-4101-8e38-5f09a5390e21"
    }
  ]
]
